{
  "kind": "collectionType",
  "collectionName": "product_ordrers",
  "info": {
    "singularName": "product-ordrer",
    "pluralName": "product-ordrers",
    "displayName": "Product_order",
    "description": ""
  },
  "options": {
    "draftAndPublish": true
  },
  "pluginOptions": {},
  "attributes": {
    "product_order_quantity": {
      "type": "integer"
    },
    "product": {
      "type": "relation",
      "relation": "manyToOne",
      "target": "api::product.product",
      "inversedBy": "product_ordrers"
    },
    "order": {
      "type": "relation",
      "relation": "manyToOne",
      "target": "api::order.order",
      "inversedBy": "product_orders"
    }
  }
}
