{
  "kind": "collectionType",
  "collectionName": "posts",
  "info": {
    "singularName": "post",
    "pluralName": "posts",
    "displayName": "Post"
  },
  "options": {
    "draftAndPublish": true
  },
  "pluginOptions": {},
  "attributes": {
    "post_title": {
      "type": "string"
    },
    "post_subtitle": {
      "type": "string"
    },
    "post_content": {
      "type": "richtext"
    },
    "post_date": {
      "type": "date"
    },
    "post_imgs": {
      "type": "relation",
      "relation": "oneToMany",
      "target": "api::post-img.post-img",
      "mappedBy": "post"
    },
    "user": {
      "type": "relation",
      "relation": "manyToOne",
      "target": "plugin::users-permissions.user",
      "inversedBy": "posts"
    }
  }
}
