{
  "kind": "collectionType",
  "collectionName": "post_imgs",
  "info": {
    "singularName": "post-img",
    "pluralName": "post-imgs",
    "displayName": "Post_img"
  },
  "options": {
    "draftAndPublish": true
  },
  "pluginOptions": {},
  "attributes": {
    "post_img_path": {
      "type": "string"
    },
    "post": {
      "type": "relation",
      "relation": "manyToOne",
      "target": "api::post.post",
      "inversedBy": "post_imgs"
    }
  }
}
