{
  "kind": "collectionType",
  "collectionName": "products",
  "info": {
    "singularName": "product",
    "pluralName": "products",
    "displayName": "Product",
    "description": ""
  },
  "options": {
    "draftAndPublish": true
  },
  "pluginOptions": {},
  "attributes": {
    "product_name": {
      "type": "string"
    },
    "product_flavor": {
      "type": "string"
    },
    "product_stock": {
      "type": "integer"
    },
    "product_price": {
      "type": "decimal"
    },
    "product_imgs": {
      "type": "relation",
      "relation": "oneToMany",
      "target": "api::product-img.product-img",
      "mappedBy": "product"
    },
    "ingredients": {
      "type": "relation",
      "relation": "manyToMany",
      "target": "api::ingredient.ingredient",
      "mappedBy": "products"
    },
    "product_ordrers": {
      "type": "relation",
      "relation": "oneToMany",
      "target": "api::product-ordrer.product-ordrer",
      "mappedBy": "product"
    },
    "product_subscriptions": {
      "type": "relation",
      "relation": "oneToMany",
      "target": "api::product-subscription.product-subscription",
      "mappedBy": "product"
    }
  }
}
